<svg xmlns="http://www.w3.org/2000/svg" viewBox="-50 -5 750 700">
<style>
.texte-titre { font: 24px sans-serif; }
.texte-adresse { font: 8px monospace; }
.texte-description { font: 12px sans-serif; }
</style>
<g>
    <rect x="0" y="0" width="250" height="100" fill="lightblue" stroke="black" />
    <text x="125" y="60" text-anchor="middle" class="texte-titre">code</text>
    <text x="-2" y="3" text-anchor="end" class="texte-adresse">0x08048000</text>
    <text x="260" y="55" text-anchor="start" class="texte-description">Code machine du programme (et constantes)</text>
</g>
<g>
    <rect x="0" y="100" width="250" height="50" fill="#43b3d8" stroke="black" />
    <text x="125" y="135" text-anchor="middle" class="texte-titre">données</text>
    <text x="-2" y="103" text-anchor="end" class="texte-adresse">0x0804a000</text>
    <text x="260" y="125" text-anchor="start" class="texte-description">Variables globales, données non initialisées.</text>
</g>
<g>
    <rect x="0" y="150" width="250" height="100" fill="lightgreen" stroke="black" />
    <text x="125" y="205" text-anchor="middle" class="texte-titre">tas</text>
    <text x="-2" y="153" text-anchor="end" class="texte-adresse">0x08050000</text>
    <text x="260" y="195" text-anchor="start" class="texte-description">Allocation dynamique.</text>
</g>
<g>
    <rect x="0" y="250" width="250" height="100" fill="lightgray" stroke="black" />
    <text x="125" y="305" text-anchor="middle" class="texte-description">(non allouée)</text>
    <text x="-2" y="253" text-anchor="end" class="texte-adresse">0x08071000</text>
    <text x="260" y="295" text-anchor="start" class="texte-description">pour agrandir le tas (à la demande)</text>
</g>
<g>
    <rect x="0" y="350" width="250" height="100" fill="lightpink" stroke="black" />
    <text x="125" y="405" text-anchor="middle" class="texte-titre">bibliothèques</text>
    <text x="-2" y="353" text-anchor="end" class="texte-adresse">0xb7e00000</text>
    <text x="260" y="395" text-anchor="start" class="texte-description">fonctions externes (non partagées)</text>
</g>
<g>
    <rect x="0" y="450" width="250" height="100" fill="lightgray" stroke="black" />
    <text x="125" y="505" text-anchor="middle" class="texte-description">(non allouée)</text>
    <text x="-2" y="453" text-anchor="end" class="texte-adresse">0x80000000</text>
    <text x="260" y="495" text-anchor="start" class="texte-description">pour agrandir la pile (à la demande)</text>
</g>
<g>
    <rect x="0" y="550" width="250" height="100" fill="lightyellow" stroke="black" />
    <text x="125" y="605" text-anchor="middle" class="texte-titre">pile</text>
    <text x="-2" y="553" text-anchor="end" class="texte-adresse">0xbffdf000</text>
    <text x="260" y="565" text-anchor="start" class="texte-description">(variables environnement, nom programme, arguments)</text>
    <text x="260" y="615" text-anchor="start" class="texte-description">variables locales, adresse de retour</text>
    <text x="-2" y="653" text-anchor="end" class="texte-adresse">0xc0000000</text>
</g>
</svg>
