<?xml version="1.0" encoding="UTF-8"?>
<svg xmlns="http://www.w3.org/2000/svg" xmlns:xlink="http://www.w3.org/1999/xlink" width="181.161pt" height="198.072pt" viewBox="0 0 181.161 198.072" version="1.1">
<defs>
<g>
<symbol overflow="visible" id="glyph0-0">
<path style="stroke:none;" d="M 0.484375 1.734375 L 5.390625 1.734375 L 5.390625 -6.921875 L 0.484375 -6.921875 Z M 1.046875 1.1875 L 1.046875 -6.375 L 4.84375 -6.375 L 4.84375 1.1875 Z M 1.046875 1.1875 "/>
</symbol>
<symbol overflow="visible" id="glyph0-1">
<path style="stroke:none;" d="M 1.890625 -0.8125 C 3.4375 -2.40625 4.296875 -3.28125 4.453125 -3.46875 C 5.046875 -4.1875 5.21875 -4.65625 5.21875 -5.234375 C 5.21875 -5.859375 5 -6.359375 4.546875 -6.71875 C 4.109375 -7.09375 3.515625 -7.28125 2.78125 -7.28125 C 2.234375 -7.28125 1.546875 -7.125 0.765625 -6.8125 L 0.765625 -5.828125 C 1.546875 -6.265625 2.203125 -6.46875 2.8125 -6.46875 C 3.671875 -6.46875 4.25 -5.9375 4.25 -5.1875 C 4.25 -4.703125 4.046875 -4.28125 3.421875 -3.578125 C 3.25 -3.390625 2.859375 -2.984375 2.21875 -2.34375 C 1.578125 -1.703125 1.078125 -1.203125 0.71875 -0.8125 L 0.71875 0 L 5.265625 0 L 5.265625 -0.8125 Z M 1.890625 -0.8125 "/>
</symbol>
<symbol overflow="visible" id="glyph0-2">
<path style="stroke:none;" d="M 1.0625 -7.15625 L 1.0625 -3.5625 C 1.59375 -3.796875 2.109375 -3.921875 2.625 -3.921875 C 3.734375 -3.921875 4.421875 -3.28125 4.421875 -2.296875 C 4.421875 -1.3125 3.734375 -0.671875 2.625 -0.671875 C 1.9375 -0.671875 1.328125 -0.828125 0.75 -1.140625 L 0.75 -0.171875 C 1.421875 0.046875 2.046875 0.140625 2.640625 0.140625 C 4.375 0.140625 5.390625 -0.75 5.390625 -2.296875 C 5.390625 -3.046875 5.15625 -3.625 4.6875 -4.078125 C 4.21875 -4.515625 3.578125 -4.734375 2.78125 -4.734375 C 2.515625 -4.734375 2.234375 -4.6875 1.9375 -4.578125 L 1.9375 -6.34375 L 4.859375 -6.34375 L 4.859375 -7.15625 Z M 1.0625 -7.15625 "/>
</symbol>
<symbol overflow="visible" id="glyph0-3">
<path style="stroke:none;" d="M 0.484375 -3.078125 L 0.484375 -2.296875 L 3.0625 -2.296875 L 3.0625 -3.078125 Z M 0.484375 -3.078125 "/>
</symbol>
<symbol overflow="visible" id="glyph0-4">
<path style="stroke:none;" d="M 1.21875 -0.8125 L 1.21875 0 L 5.34375 0 L 5.34375 -0.8125 L 3.765625 -0.8125 L 3.765625 -7.15625 L 2.78125 -7.15625 L 1.078125 -6.8125 L 1.078125 -5.921875 L 2.796875 -6.265625 L 2.796875 -0.8125 Z M 1.21875 -0.8125 "/>
</symbol>
<symbol overflow="visible" id="glyph0-5">
<path style="stroke:none;" d="M 0.796875 -7.15625 L 0.796875 -6.34375 L 4.234375 -6.34375 L 1.796875 0 L 2.8125 0 L 5.40625 -6.734375 L 5.40625 -7.15625 Z M 0.796875 -7.15625 "/>
</symbol>
<symbol overflow="visible" id="glyph0-6">
<path style="stroke:none;" d="M 3.125 -6.515625 C 4.125 -6.515625 4.625 -5.53125 4.625 -3.578125 C 4.625 -1.609375 4.125 -0.625 3.125 -0.625 C 2.125 -0.625 1.625 -1.609375 1.625 -3.578125 C 1.625 -5.53125 2.125 -6.515625 3.125 -6.515625 Z M 3.125 -7.28125 C 1.515625 -7.28125 0.640625 -5.96875 0.640625 -3.578125 C 0.640625 -1.171875 1.515625 0.140625 3.125 0.140625 C 4.71875 0.140625 5.59375 -1.171875 5.59375 -3.578125 C 5.59375 -5.96875 4.71875 -7.28125 3.125 -7.28125 Z M 3.125 -7.28125 "/>
</symbol>
<symbol overflow="visible" id="glyph0-7">
<path style="stroke:none;" d="M 3.125 -3.390625 C 4.046875 -3.390625 4.609375 -2.875 4.609375 -2.015625 C 4.609375 -1.15625 4.03125 -0.625 3.125 -0.625 C 2.203125 -0.625 1.640625 -1.140625 1.640625 -2.015625 C 1.640625 -2.875 2.203125 -3.390625 3.125 -3.390625 Z M 2.15625 -3.8125 C 1.21875 -3.59375 0.671875 -2.921875 0.671875 -2.015625 C 0.671875 -0.625 1.546875 0.140625 3.125 0.140625 C 4.6875 0.140625 5.578125 -0.625 5.578125 -2.015625 C 5.578125 -2.921875 5.03125 -3.59375 4.09375 -3.8125 C 4.921875 -4.015625 5.40625 -4.609375 5.40625 -5.421875 C 5.40625 -6.578125 4.546875 -7.28125 3.125 -7.28125 C 1.703125 -7.28125 0.828125 -6.578125 0.828125 -5.421875 C 0.828125 -4.609375 1.328125 -4.015625 2.15625 -3.8125 Z M 1.796875 -5.34375 C 1.796875 -6.078125 2.28125 -6.515625 3.125 -6.515625 C 3.9375 -6.515625 4.4375 -6.078125 4.4375 -5.34375 C 4.4375 -4.59375 3.9375 -4.15625 3.125 -4.15625 C 2.28125 -4.15625 1.796875 -4.59375 1.796875 -5.34375 Z M 1.796875 -5.34375 "/>
</symbol>
<symbol overflow="visible" id="glyph0-8">
<path style="stroke:none;" d="M 0.96875 -7.15625 L 0.96875 0 L 5.421875 0 L 5.421875 -0.8125 L 1.9375 -0.8125 L 1.9375 -7.15625 Z M 0.96875 -7.15625 "/>
</symbol>
<symbol overflow="visible" id="glyph0-9">
<path style="stroke:none;" d="M 1.046875 -4.453125 L 1.046875 -3.65625 L 7.1875 -3.65625 L 7.1875 -4.453125 Z M 1.046875 -2.5 L 1.046875 -1.6875 L 7.1875 -1.6875 L 7.1875 -2.5 Z M 1.046875 -2.5 "/>
</symbol>
<symbol overflow="visible" id="glyph1-0">
<path style="stroke:none;" d="M 0.265625 0.953125 L 2.953125 0.953125 L 2.953125 -3.796875 L 0.265625 -3.796875 Z M 0.5625 0.65625 L 0.5625 -3.484375 L 2.65625 -3.484375 L 2.65625 0.65625 Z M 0.5625 0.65625 "/>
</symbol>
<symbol overflow="visible" id="glyph1-1">
<path style="stroke:none;" d="M 1.671875 -4.078125 L 1.25 -4.078125 C 0.71875 -3.25 0.46875 -2.46875 0.46875 -1.6875 C 0.46875 -0.90625 0.71875 -0.109375 1.25 0.703125 L 1.671875 0.703125 C 1.203125 -0.09375 0.96875 -0.875 0.96875 -1.6875 C 0.96875 -2.5 1.203125 -3.265625 1.671875 -4.078125 Z M 1.671875 -4.078125 "/>
</symbol>
<symbol overflow="visible" id="glyph1-2">
<path style="stroke:none;" d="M 0.984375 -3.765625 L 0.5 -3.765625 L 0.5 -2.9375 L 0.140625 -2.9375 L 0.140625 -2.5625 L 0.5 -2.5625 L 0.5 -0.96875 C 0.5 -0.609375 0.5625 -0.34375 0.703125 -0.203125 C 0.859375 -0.0625 1.109375 0 1.484375 0 L 1.984375 0 L 1.984375 -0.40625 L 1.484375 -0.40625 C 1.28125 -0.40625 1.15625 -0.4375 1.078125 -0.5 C 1.015625 -0.578125 0.984375 -0.71875 0.984375 -0.96875 L 0.984375 -2.5625 L 1.984375 -2.5625 L 1.984375 -2.9375 L 0.984375 -2.9375 Z M 0.984375 -3.765625 "/>
</symbol>
<symbol overflow="visible" id="glyph1-3">
<path style="stroke:none;" d="M 2.203125 -2.484375 L 2.203125 -2.984375 C 2.109375 -3 2.03125 -3.015625 1.96875 -3.015625 C 1.5 -3.015625 1.171875 -2.84375 0.96875 -2.484375 L 0.96875 -2.9375 L 0.484375 -2.9375 L 0.484375 0 L 0.96875 0 L 0.96875 -1.546875 C 0.96875 -2.21875 1.28125 -2.578125 1.828125 -2.578125 C 1.96875 -2.578125 2.109375 -2.546875 2.203125 -2.484375 Z M 2.203125 -2.484375 "/>
</symbol>
<symbol overflow="visible" id="glyph1-4">
<path style="stroke:none;" d="M 0.5 -2.9375 L 0.5 0 L 0.984375 0 L 0.984375 -2.9375 Z M 0.5 -4.078125 L 0.5 -3.46875 L 0.984375 -3.46875 L 0.984375 -4.078125 Z M 0.5 -4.078125 "/>
</symbol>
<symbol overflow="visible" id="glyph1-5">
<path style="stroke:none;" d="M 3.015625 -1.59375 C 3.015625 -2.03125 2.90625 -2.375 2.671875 -2.625 C 2.453125 -2.875 2.140625 -3.015625 1.734375 -3.015625 C 1.296875 -3.015625 0.953125 -2.875 0.6875 -2.578125 C 0.421875 -2.296875 0.296875 -1.921875 0.296875 -1.4375 C 0.296875 -0.96875 0.4375 -0.609375 0.703125 -0.328125 C 0.984375 -0.0625 1.359375 0.078125 1.828125 0.078125 C 2.1875 0.078125 2.5625 0 2.90625 -0.15625 L 2.90625 -0.609375 C 2.5625 -0.421875 2.21875 -0.328125 1.84375 -0.328125 C 1.203125 -0.328125 0.84375 -0.6875 0.796875 -1.359375 L 3.015625 -1.359375 Z M 2.53125 -1.734375 L 0.8125 -1.734375 C 0.859375 -2.28125 1.203125 -2.59375 1.734375 -2.59375 C 2.21875 -2.59375 2.53125 -2.265625 2.53125 -1.734375 Z M 2.078125 -4.296875 L 1.34375 -3.3125 L 1.734375 -3.3125 L 2.59375 -4.296875 Z M 2.078125 -4.296875 "/>
</symbol>
<symbol overflow="visible" id="glyph1-6">
<path style="stroke:none;" d="M 0.4375 -4.078125 C 0.890625 -3.265625 1.125 -2.5 1.125 -1.6875 C 1.125 -0.875 0.890625 -0.09375 0.4375 0.703125 L 0.84375 0.703125 C 1.375 -0.109375 1.640625 -0.90625 1.640625 -1.6875 C 1.640625 -2.46875 1.375 -3.25 0.84375 -4.078125 Z M 0.4375 -4.078125 "/>
</symbol>
</g>
</defs>
<g id="surface1">
<path style="fill:none;stroke-width:0.3985;stroke-linecap:butt;stroke-linejoin:miter;stroke:rgb(0%,0%,0%);stroke-opacity:1;stroke-miterlimit:10;" d="M 0.200938 0.19875 L 126.501719 0.19875 L 126.501719 21.460469 L 0.200938 21.460469 Z M 21.115 21.460469 L 21.115 0.19875 M 42.232188 21.460469 L 42.232188 0.19875 M 63.349375 21.460469 L 63.349375 0.19875 M 84.466563 21.460469 L 84.466563 0.19875 M 105.58375 21.460469 L 105.58375 0.19875 " transform="matrix(1,0,0,-1,21.26,36.23)"/>
<g style="fill:rgb(0%,0%,0%);fill-opacity:1;">
  <use xlink:href="#glyph0-1" x="28.696" y="28.945"/>
</g>
<g style="fill:rgb(0%,0%,0%);fill-opacity:1;">
  <use xlink:href="#glyph0-2" x="49.812" y="28.876"/>
</g>
<g style="fill:rgb(0%,0%,0%);fill-opacity:1;">
  <use xlink:href="#glyph0-3" x="69.157" y="28.945"/>
  <use xlink:href="#glyph0-4" x="72.701334" y="28.945"/>
</g>
<g style="fill:rgb(0%,0%,0%);fill-opacity:1;">
  <use xlink:href="#glyph0-5" x="92.045" y="28.945"/>
</g>
<g style="fill:rgb(0%,0%,0%);fill-opacity:1;">
  <use xlink:href="#glyph0-6" x="113.162" y="28.876"/>
</g>
<g style="fill:rgb(0%,0%,0%);fill-opacity:1;">
  <use xlink:href="#glyph0-1" x="131.156" y="28.876"/>
  <use xlink:href="#glyph0-7" x="137.400312" y="28.876"/>
</g>
<g style="fill:rgb(0%,0%,0%);fill-opacity:1;">
  <use xlink:href="#glyph0-8" x="4.092" y="28.945"/>
  <use xlink:href="#glyph0-9" x="9.560682" y="28.945"/>
</g>
<path style="fill:none;stroke-width:0.79701;stroke-linecap:butt;stroke-linejoin:miter;stroke:rgb(0%,0%,0%);stroke-opacity:1;stroke-dasharray:2.98883,2.98883;stroke-miterlimit:10;" d="M 63.349375 21.659688 L 63.349375 35.831563 M 63.349375 -0.00046875 L 63.349375 -14.172344 " transform="matrix(1,0,0,-1,21.26,36.23)"/>
<path style="fill:none;stroke-width:0.3985;stroke-linecap:butt;stroke-linejoin:miter;stroke:rgb(0%,0%,0%);stroke-opacity:1;stroke-miterlimit:10;" d="M -13.974844 -49.805156 L 48.978281 -49.805156 L 48.978281 -28.547344 L -13.974844 -28.547344 Z M 6.943125 -28.547344 L 6.943125 -49.805156 M 28.060313 -28.547344 L 28.060313 -49.805156 " transform="matrix(1,0,0,-1,21.26,36.23)"/>
<g style="fill:rgb(0%,0%,0%);fill-opacity:1;">
  <use xlink:href="#glyph0-1" x="14.523" y="78.95"/>
</g>
<g style="fill:rgb(0%,0%,0%);fill-opacity:1;">
  <use xlink:href="#glyph0-2" x="35.639" y="78.881"/>
</g>
<g style="fill:rgb(0%,0%,0%);fill-opacity:1;">
  <use xlink:href="#glyph0-3" x="54.983" y="78.95"/>
  <use xlink:href="#glyph0-4" x="58.527334" y="78.95"/>
</g>
<path style="fill:none;stroke-width:0.3985;stroke-linecap:butt;stroke-linejoin:miter;stroke:rgb(0%,0%,0%);stroke-opacity:1;stroke-miterlimit:10;" d="M 77.724375 -49.805156 L 140.673594 -49.805156 L 140.673594 -28.547344 L 77.724375 -28.547344 Z M 98.638438 -28.547344 L 98.638438 -49.805156 M 119.755625 -28.547344 L 119.755625 -49.805156 " transform="matrix(1,0,0,-1,21.26,36.23)"/>
<g style="fill:rgb(0%,0%,0%);fill-opacity:1;">
  <use xlink:href="#glyph0-5" x="106.218" y="78.95"/>
</g>
<g style="fill:rgb(0%,0%,0%);fill-opacity:1;">
  <use xlink:href="#glyph0-6" x="127.335" y="78.881"/>
</g>
<g style="fill:rgb(0%,0%,0%);fill-opacity:1;">
  <use xlink:href="#glyph0-1" x="145.329" y="78.881"/>
  <use xlink:href="#glyph0-7" x="151.573312" y="78.881"/>
</g>
<path style="fill:none;stroke-width:0.3985;stroke-linecap:butt;stroke-linejoin:miter;stroke:rgb(0%,0%,0%);stroke-opacity:1;stroke-miterlimit:10;" d="M 31.673594 -0.00046875 L 19.107188 -25.137187 " transform="matrix(1,0,0,-1,21.26,36.23)"/>
<path style=" stroke:none;fill-rule:nonzero;fill:rgb(0%,0%,0%);fill-opacity:1;" d="M 38.761719 64.578125 C 39.414062 63.714844 40.722656 62.4375 41.878906 61.679688 L 39.207031 60.34375 C 39.296875 61.726562 39.058594 63.539062 38.761719 64.578125 "/>
<path style="fill:none;stroke-width:0.3985;stroke-linecap:butt;stroke-linejoin:miter;stroke:rgb(0%,0%,0%);stroke-opacity:1;stroke-miterlimit:10;" d="M 95.025156 -0.00046875 L 107.595469 -25.137187 " transform="matrix(1,0,0,-1,21.26,36.23)"/>
<path style=" stroke:none;fill-rule:nonzero;fill:rgb(0%,0%,0%);fill-opacity:1;" d="M 130.457031 64.578125 C 130.160156 63.539062 129.925781 61.726562 130.011719 60.34375 L 127.339844 61.679688 C 128.5 62.4375 129.804688 63.714844 130.457031 64.578125 "/>
<path style="fill:none;stroke-width:0.79701;stroke-linecap:butt;stroke-linejoin:miter;stroke:rgb(0%,0%,0%);stroke-opacity:1;stroke-dasharray:2.98883,2.98883;stroke-miterlimit:10;" d="M 6.943125 -28.348125 L 6.943125 -14.172344 M 6.943125 -50.004375 L 6.943125 -64.180156 " transform="matrix(1,0,0,-1,21.26,36.23)"/>
<path style="fill:none;stroke-width:0.79701;stroke-linecap:butt;stroke-linejoin:miter;stroke:rgb(0%,0%,0%);stroke-opacity:1;stroke-dasharray:2.98883,2.98883;stroke-miterlimit:10;" d="M 98.638438 -28.348125 L 98.638438 -14.172344 M 98.638438 -50.004375 L 98.638438 -64.180156 " transform="matrix(1,0,0,-1,21.26,36.23)"/>
<path style="fill-rule:nonzero;fill:rgb(75%,75%,75%);fill-opacity:1;stroke-width:0.3985;stroke-linecap:butt;stroke-linejoin:miter;stroke:rgb(0%,0%,0%);stroke-opacity:1;stroke-miterlimit:10;" d="M -21.060781 -99.812969 L -0.342031 -99.812969 L -0.342031 -78.55125 L -21.060781 -78.55125 Z M -21.060781 -99.812969 " transform="matrix(1,0,0,-1,21.26,36.23)"/>
<g style="fill:rgb(0%,0%,0%);fill-opacity:1;">
  <use xlink:href="#glyph0-1" x="7.436" y="128.955"/>
</g>
<g style="fill:rgb(0%,0%,0%);fill-opacity:1;">
  <use xlink:href="#glyph1-1" x="3.898" y="144.044"/>
  <use xlink:href="#glyph1-2" x="5.996118" y="144.044"/>
  <use xlink:href="#glyph1-3" x="8.104996" y="144.044"/>
  <use xlink:href="#glyph1-4" x="10.316089" y="144.044"/>
  <use xlink:href="#glyph1-5" x="11.811671" y="144.044"/>
  <use xlink:href="#glyph1-6" x="15.120242" y="144.044"/>
</g>
<path style="fill:none;stroke-width:0.3985;stroke-linecap:butt;stroke-linejoin:miter;stroke:rgb(0%,0%,0%);stroke-opacity:1;stroke-miterlimit:10;" d="M 14.228281 -99.812969 L 56.064219 -99.812969 L 56.064219 -78.55125 L 14.228281 -78.55125 Z M 35.14625 -78.55125 L 35.14625 -99.812969 " transform="matrix(1,0,0,-1,21.26,36.23)"/>
<g style="fill:rgb(0%,0%,0%);fill-opacity:1;">
  <use xlink:href="#glyph0-2" x="42.726" y="128.886"/>
</g>
<g style="fill:rgb(0%,0%,0%);fill-opacity:1;">
  <use xlink:href="#glyph0-3" x="62.07" y="128.955"/>
  <use xlink:href="#glyph0-4" x="65.614334" y="128.955"/>
</g>
<path style="fill-rule:nonzero;fill:rgb(75%,75%,75%);fill-opacity:1;stroke-width:0.3985;stroke-linecap:butt;stroke-linejoin:miter;stroke:rgb(0%,0%,0%);stroke-opacity:1;stroke-miterlimit:10;" d="M 70.634531 -99.812969 L 91.353281 -99.812969 L 91.353281 -78.55125 L 70.634531 -78.55125 Z M 70.634531 -99.812969 " transform="matrix(1,0,0,-1,21.26,36.23)"/>
<g style="fill:rgb(0%,0%,0%);fill-opacity:1;">
  <use xlink:href="#glyph0-5" x="99.132" y="128.955"/>
</g>
<g style="fill:rgb(0%,0%,0%);fill-opacity:1;">
  <use xlink:href="#glyph1-1" x="95.594" y="144.044"/>
  <use xlink:href="#glyph1-2" x="97.692118" y="144.044"/>
  <use xlink:href="#glyph1-3" x="99.800996" y="144.044"/>
  <use xlink:href="#glyph1-4" x="102.012089" y="144.044"/>
  <use xlink:href="#glyph1-5" x="103.507671" y="144.044"/>
  <use xlink:href="#glyph1-6" x="106.816242" y="144.044"/>
</g>
<path style="fill:none;stroke-width:0.3985;stroke-linecap:butt;stroke-linejoin:miter;stroke:rgb(0%,0%,0%);stroke-opacity:1;stroke-miterlimit:10;" d="M 105.9275 -99.812969 L 147.759531 -99.812969 L 147.759531 -78.55125 L 105.9275 -78.55125 Z M 126.841563 -78.55125 L 126.841563 -99.812969 " transform="matrix(1,0,0,-1,21.26,36.23)"/>
<g style="fill:rgb(0%,0%,0%);fill-opacity:1;">
  <use xlink:href="#glyph0-6" x="134.421" y="128.886"/>
</g>
<g style="fill:rgb(0%,0%,0%);fill-opacity:1;">
  <use xlink:href="#glyph0-1" x="152.416" y="128.886"/>
  <use xlink:href="#glyph0-7" x="158.660312" y="128.886"/>
</g>
<path style="fill:none;stroke-width:0.3985;stroke-linecap:butt;stroke-linejoin:miter;stroke:rgb(0%,0%,0%);stroke-opacity:1;stroke-miterlimit:10;" d="M -3.615469 -50.004375 L -8.10375 -74.824687 " transform="matrix(1,0,0,-1,21.26,36.23)"/>
<path style=" stroke:none;fill-rule:nonzero;fill:rgb(0%,0%,0%);fill-opacity:1;" d="M 12.515625 114.582031 C 12.902344 113.570312 13.796875 111.980469 14.695312 110.925781 L 11.753906 110.394531 C 12.230469 111.695312 12.507812 113.5 12.515625 114.582031 "/>
<path style="fill:none;stroke-width:0.3985;stroke-linecap:butt;stroke-linejoin:miter;stroke:rgb(0%,0%,0%);stroke-opacity:1;stroke-miterlimit:10;" d="M 28.060313 -50.004375 L 32.548594 -74.824687 " transform="matrix(1,0,0,-1,21.26,36.23)"/>
<path style=" stroke:none;fill-rule:nonzero;fill:rgb(0%,0%,0%);fill-opacity:1;" d="M 54.449219 114.582031 C 54.457031 113.5 54.734375 111.695312 55.210938 110.394531 L 52.269531 110.925781 C 53.167969 111.980469 54.0625 113.570312 54.449219 114.582031 "/>
<path style="fill:none;stroke-width:0.3985;stroke-linecap:butt;stroke-linejoin:miter;stroke:rgb(0%,0%,0%);stroke-opacity:1;stroke-miterlimit:10;" d="M 88.079844 -50.004375 L 83.591563 -74.824687 " transform="matrix(1,0,0,-1,21.26,36.23)"/>
<path style=" stroke:none;fill-rule:nonzero;fill:rgb(0%,0%,0%);fill-opacity:1;" d="M 104.214844 114.582031 C 104.597656 113.570312 105.492188 111.980469 106.394531 110.925781 L 103.453125 110.394531 C 103.925781 111.695312 104.207031 113.5 104.214844 114.582031 "/>
<path style="fill:none;stroke-width:0.3985;stroke-linecap:butt;stroke-linejoin:miter;stroke:rgb(0%,0%,0%);stroke-opacity:1;stroke-miterlimit:10;" d="M 119.755625 -50.004375 L 124.247813 -74.824687 " transform="matrix(1,0,0,-1,21.26,36.23)"/>
<path style=" stroke:none;fill-rule:nonzero;fill:rgb(0%,0%,0%);fill-opacity:1;" d="M 146.144531 114.582031 C 146.152344 113.5 146.433594 111.695312 146.90625 110.394531 L 143.964844 110.925781 C 144.863281 111.980469 145.761719 113.570312 146.144531 114.582031 "/>
</g>
</svg>
