<?xml version="1.0" encoding="UTF-8"?>
<svg xmlns="http://www.w3.org/2000/svg" xmlns:xlink="http://www.w3.org/1999/xlink" width="237.669" height="84.509" viewBox="0 0 237.669 84.509">
<defs>
<g>
<g id="glyph-0-0">
<path d="M 0.359375 1.265625 L 3.9375 1.265625 L 3.9375 -5.0625 L 0.359375 -5.0625 Z M 0.765625 0.875 L 0.765625 -4.65625 L 3.546875 -4.65625 L 3.546875 0.875 Z M 0.765625 0.875 "/>
</g>
<g id="glyph-0-1">
<path d="M 0.703125 -5.234375 L 0.703125 0 L 1.390625 0 L 1.390625 -4.375 L 3.703125 0 L 4.65625 0 L 4.65625 -5.234375 L 3.96875 -5.234375 L 3.96875 -0.859375 L 1.65625 -5.234375 Z M 0.703125 -5.234375 "/>
</g>
<g id="glyph-0-2">
<path d="M 2.1875 -3.46875 C 2.890625 -3.46875 3.3125 -2.890625 3.3125 -1.953125 C 3.3125 -1.015625 2.890625 -0.4375 2.1875 -0.4375 C 1.5 -0.4375 1.078125 -1.015625 1.078125 -1.953125 C 1.078125 -2.890625 1.5 -3.46875 2.1875 -3.46875 Z M 2.1875 -4.015625 C 1.0625 -4.015625 0.390625 -3.25 0.390625 -1.953125 C 0.390625 -0.671875 1.0625 0.09375 2.1875 0.09375 C 3.3125 0.09375 4 -0.671875 4 -1.953125 C 4 -3.25 3.3125 -4.015625 2.1875 -4.015625 Z M 2.1875 -4.015625 "/>
</g>
<g id="glyph-0-3">
<path d="M 3.734375 -3.171875 C 3.53125 -3.71875 3.140625 -4.015625 2.5625 -4.015625 C 2 -4.015625 1.59375 -3.796875 1.296875 -3.3125 L 1.296875 -3.921875 L 0.65625 -3.921875 L 0.65625 0 L 1.296875 0 L 1.296875 -2.21875 C 1.296875 -2.984375 1.71875 -3.453125 2.375 -3.453125 C 2.921875 -3.453125 3.1875 -3.09375 3.1875 -2.34375 L 3.1875 0 L 3.84375 0 L 3.84375 -2.21875 C 3.84375 -2.984375 4.25 -3.453125 4.921875 -3.453125 C 5.46875 -3.453125 5.734375 -3.09375 5.734375 -2.34375 L 5.734375 0 L 6.375 0 L 6.375 -2.359375 C 6.375 -3.421875 5.90625 -4.015625 5.09375 -4.015625 C 4.484375 -4.015625 4.046875 -3.75 3.734375 -3.171875 Z M 3.734375 -3.171875 "/>
</g>
<g id="glyph-0-4">
<path d="M 3.5 -1.953125 C 3.5 -1.015625 3.078125 -0.4375 2.390625 -0.4375 C 1.71875 -0.4375 1.296875 -1.015625 1.296875 -1.953125 C 1.296875 -2.90625 1.71875 -3.484375 2.390625 -3.484375 C 3.078125 -3.484375 3.5 -2.90625 3.5 -1.953125 Z M 1.296875 -3.328125 L 1.296875 -5.453125 L 0.65625 -5.453125 L 0.65625 0 L 1.296875 0 L 1.296875 -0.59375 C 1.5625 -0.125 1.984375 0.09375 2.546875 0.09375 C 3.03125 0.09375 3.421875 -0.09375 3.71875 -0.46875 C 4.015625 -0.84375 4.15625 -1.34375 4.15625 -1.953125 C 4.15625 -2.578125 4.015625 -3.0625 3.71875 -3.453125 C 3.421875 -3.828125 3.03125 -4.015625 2.546875 -4.015625 C 1.984375 -4.015625 1.5625 -3.796875 1.296875 -3.328125 Z M 1.296875 -3.328125 "/>
</g>
<g id="glyph-0-5">
<path d="M 2.953125 -3.328125 L 2.953125 -3.984375 C 2.8125 -4.015625 2.71875 -4.015625 2.625 -4.015625 C 2 -4.015625 1.5625 -3.796875 1.296875 -3.3125 L 1.296875 -3.921875 L 0.65625 -3.921875 L 0.65625 0 L 1.296875 0 L 1.296875 -2.0625 C 1.296875 -2.953125 1.703125 -3.4375 2.4375 -3.4375 C 2.625 -3.4375 2.796875 -3.40625 2.953125 -3.328125 Z M 2.953125 -3.328125 "/>
</g>
<g id="glyph-0-6">
<path d="M 4.03125 -2.125 C 4.03125 -2.703125 3.875 -3.171875 3.578125 -3.5 C 3.265625 -3.84375 2.84375 -4.015625 2.3125 -4.015625 C 1.734375 -4.015625 1.265625 -3.828125 0.90625 -3.453125 C 0.5625 -3.0625 0.390625 -2.5625 0.390625 -1.921875 C 0.390625 -1.296875 0.578125 -0.8125 0.9375 -0.4375 C 1.3125 -0.078125 1.8125 0.09375 2.4375 0.09375 C 2.921875 0.09375 3.421875 0 3.875 -0.203125 L 3.875 -0.8125 C 3.421875 -0.5625 2.96875 -0.4375 2.46875 -0.4375 C 1.609375 -0.4375 1.125 -0.921875 1.0625 -1.8125 L 4.03125 -1.8125 Z M 3.390625 -2.3125 L 1.09375 -2.3125 C 1.15625 -3.046875 1.609375 -3.46875 2.328125 -3.46875 C 2.96875 -3.46875 3.375 -3.015625 3.390625 -2.3125 Z M 3.390625 -2.3125 "/>
</g>
<g id="glyph-0-7">
<path d="M 3.25 -3.328125 C 2.984375 -3.796875 2.578125 -4.015625 2 -4.015625 C 1.53125 -4.015625 1.140625 -3.828125 0.84375 -3.453125 C 0.546875 -3.0625 0.390625 -2.578125 0.390625 -1.953125 C 0.390625 -1.34375 0.546875 -0.84375 0.84375 -0.46875 C 1.140625 -0.09375 1.53125 0.09375 2 0.09375 C 2.578125 0.09375 2.984375 -0.125 3.25 -0.59375 L 3.25 0 L 3.90625 0 L 3.90625 -5.453125 L 3.25 -5.453125 Z M 1.0625 -1.953125 C 1.0625 -2.90625 1.46875 -3.484375 2.15625 -3.484375 C 2.84375 -3.484375 3.25 -2.90625 3.25 -1.953125 C 3.25 -1.015625 2.84375 -0.4375 2.15625 -0.4375 C 1.46875 -0.4375 1.0625 -1.015625 1.0625 -1.953125 Z M 1.0625 -1.953125 "/>
</g>
<g id="glyph-0-8">
<path d="M 3.5 -3.765625 C 3.15625 -3.9375 2.765625 -4.015625 2.359375 -4.015625 C 1.75 -4.015625 1.265625 -3.828125 0.921875 -3.46875 C 0.5625 -3.09375 0.390625 -2.59375 0.390625 -1.953125 C 0.390625 -1.328125 0.5625 -0.828125 0.921875 -0.453125 C 1.265625 -0.09375 1.734375 0.09375 2.328125 0.09375 C 2.765625 0.09375 3.140625 0.015625 3.5 -0.15625 L 3.5 -0.75 C 3.140625 -0.546875 2.765625 -0.4375 2.390625 -0.4375 C 1.5625 -0.4375 1.078125 -1 1.078125 -1.953125 C 1.078125 -2.90625 1.5625 -3.46875 2.390625 -3.46875 C 2.765625 -3.46875 3.140625 -3.375 3.5 -3.171875 Z M 3.5 -3.765625 "/>
</g>
<g id="glyph-0-9">
<path d="M 1.296875 -0.59375 C 1.5625 -0.125 1.984375 0.09375 2.546875 0.09375 C 3.03125 0.09375 3.421875 -0.09375 3.71875 -0.46875 C 4.015625 -0.84375 4.15625 -1.34375 4.15625 -1.953125 C 4.15625 -2.578125 4.015625 -3.0625 3.71875 -3.453125 C 3.421875 -3.828125 3.03125 -4.015625 2.546875 -4.015625 C 1.984375 -4.015625 1.5625 -3.796875 1.296875 -3.328125 L 1.296875 -3.921875 L 0.65625 -3.921875 L 0.65625 1.484375 L 1.296875 1.484375 Z M 3.5 -1.953125 C 3.5 -1.015625 3.078125 -0.4375 2.390625 -0.4375 C 1.71875 -0.4375 1.296875 -1.015625 1.296875 -1.953125 C 1.296875 -2.90625 1.71875 -3.484375 2.390625 -3.484375 C 3.078125 -3.484375 3.5 -2.90625 3.5 -1.953125 Z M 3.5 -1.953125 "/>
</g>
<g id="glyph-0-10">
<path d="M 2.453125 -1.96875 L 3.09375 -1.96875 L 3.09375 -1.828125 C 3.09375 -0.984375 2.625 -0.4375 1.921875 -0.4375 C 1.40625 -0.4375 1.078125 -0.71875 1.078125 -1.1875 C 1.078125 -1.46875 1.171875 -1.671875 1.375 -1.796875 C 1.578125 -1.921875 1.9375 -1.96875 2.453125 -1.96875 Z M 3.75 -2.234375 C 3.75 -3.4375 3.1875 -4.015625 2.046875 -4.015625 C 1.625 -4.015625 1.1875 -3.921875 0.71875 -3.75 L 0.71875 -3.15625 C 1.109375 -3.359375 1.53125 -3.46875 1.984375 -3.46875 C 2.703125 -3.46875 3.09375 -3.140625 3.09375 -2.53125 L 3.09375 -2.46875 L 2.1875 -2.46875 C 1.03125 -2.46875 0.4375 -2.015625 0.4375 -1.140625 C 0.4375 -0.390625 0.9375 0.09375 1.75 0.09375 C 2.375 0.09375 2.796875 -0.109375 3.09375 -0.59375 L 3.09375 0 L 3.75 0 Z M 3.75 -2.234375 "/>
</g>
<g id="glyph-0-11">
<path d="M 0.671875 -3.921875 L 0.671875 0 L 1.3125 0 L 1.3125 -3.921875 Z M 0.671875 -5.453125 L 0.671875 -4.640625 L 1.3125 -4.640625 L 1.3125 -5.453125 Z M 0.671875 -5.453125 "/>
</g>
<g id="glyph-0-12">
<path d="M 3.171875 -3.8125 C 2.828125 -3.9375 2.40625 -4.015625 1.921875 -4.015625 C 0.953125 -4.015625 0.421875 -3.59375 0.421875 -2.859375 C 0.421875 -2.25 0.75 -1.921875 1.546875 -1.75 L 1.765625 -1.703125 C 2.171875 -1.625 2.4375 -1.53125 2.546875 -1.4375 C 2.671875 -1.34375 2.71875 -1.21875 2.71875 -1.03125 C 2.71875 -0.65625 2.390625 -0.4375 1.78125 -0.4375 C 1.328125 -0.4375 0.875 -0.5625 0.390625 -0.8125 L 0.390625 -0.140625 C 0.890625 0.015625 1.34375 0.09375 1.765625 0.09375 C 2.78125 0.09375 3.390625 -0.359375 3.390625 -1.078125 C 3.390625 -1.71875 3.046875 -2.046875 2.125 -2.25 L 1.90625 -2.296875 C 1.21875 -2.453125 1.046875 -2.59375 1.046875 -2.890625 C 1.046875 -3.28125 1.359375 -3.484375 2 -3.484375 C 2.421875 -3.484375 2.8125 -3.375 3.171875 -3.203125 Z M 3.171875 -3.8125 "/>
</g>
<g id="glyph-0-13">
<path d="M 3.9375 -2.359375 C 3.9375 -3.453125 3.46875 -4.015625 2.5625 -4.015625 C 2.015625 -4.015625 1.609375 -3.78125 1.296875 -3.3125 L 1.296875 -3.921875 L 0.65625 -3.921875 L 0.65625 0 L 1.296875 0 L 1.296875 -2.21875 C 1.296875 -2.984375 1.734375 -3.453125 2.421875 -3.453125 C 3 -3.453125 3.296875 -3.09375 3.296875 -2.34375 L 3.296875 0 L 3.9375 0 Z M 3.9375 -2.359375 "/>
</g>
<g id="glyph-0-14">
<path d="M 0.84375 -0.890625 L 0.84375 0 L 1.578125 0 L 1.578125 -0.890625 Z M 0.84375 -3.703125 L 0.84375 -2.8125 L 1.578125 -2.8125 L 1.578125 -3.703125 Z M 0.84375 -3.703125 "/>
</g>
<g id="glyph-0-15">
<path d="M 2.28125 -4.765625 C 3.015625 -4.765625 3.375 -4.046875 3.375 -2.609375 C 3.375 -1.171875 3.015625 -0.453125 2.28125 -0.453125 C 1.5625 -0.453125 1.1875 -1.171875 1.1875 -2.609375 C 1.1875 -4.046875 1.5625 -4.765625 2.28125 -4.765625 Z M 2.28125 -5.328125 C 1.109375 -5.328125 0.46875 -4.375 0.46875 -2.609375 C 0.46875 -0.859375 1.109375 0.09375 2.28125 0.09375 C 3.453125 0.09375 4.09375 -0.859375 4.09375 -2.609375 C 4.09375 -4.375 3.453125 -5.328125 2.28125 -5.328125 Z M 2.28125 -5.328125 "/>
</g>
<g id="glyph-0-16">
<path d="M 0.890625 -0.59375 L 0.890625 0 L 3.90625 0 L 3.90625 -0.59375 L 2.75 -0.59375 L 2.75 -5.234375 L 2.03125 -5.234375 L 0.78125 -4.984375 L 0.78125 -4.328125 L 2.046875 -4.578125 L 2.046875 -0.59375 Z M 0.890625 -0.59375 "/>
</g>
<g id="glyph-0-17">
<path d="M 1.375 -0.59375 C 2.515625 -1.765625 3.140625 -2.40625 3.25 -2.53125 C 3.6875 -3.0625 3.8125 -3.40625 3.8125 -3.828125 C 3.8125 -4.28125 3.65625 -4.640625 3.328125 -4.90625 C 3 -5.1875 2.578125 -5.328125 2.03125 -5.328125 C 1.625 -5.328125 1.140625 -5.203125 0.5625 -4.984375 L 0.5625 -4.265625 C 1.125 -4.578125 1.609375 -4.71875 2.046875 -4.71875 C 2.6875 -4.71875 3.109375 -4.34375 3.109375 -3.78125 C 3.109375 -3.4375 2.953125 -3.125 2.5 -2.625 C 2.375 -2.484375 2.09375 -2.1875 1.625 -1.71875 C 1.15625 -1.25 0.78125 -0.875 0.53125 -0.59375 L 0.53125 0 L 3.84375 0 L 3.84375 -0.59375 Z M 1.375 -0.59375 "/>
</g>
<g id="glyph-1-0">
<path d="M 0.484375 1.734375 L 5.390625 1.734375 L 5.390625 -6.921875 L 0.484375 -6.921875 Z M 1.046875 1.1875 L 1.046875 -6.375 L 4.84375 -6.375 L 4.84375 1.1875 Z M 1.046875 1.1875 "/>
</g>
<g id="glyph-1-1">
<path d="M 0.484375 -3.078125 L 0.484375 -2.296875 L 3.0625 -2.296875 L 3.0625 -3.078125 Z M 0.484375 -3.078125 "/>
</g>
<g id="glyph-1-2">
<path d="M 1.21875 -0.8125 L 1.21875 0 L 5.34375 0 L 5.34375 -0.8125 L 3.765625 -0.8125 L 3.765625 -7.15625 L 2.78125 -7.15625 L 1.078125 -6.8125 L 1.078125 -5.921875 L 2.796875 -6.265625 L 2.796875 -0.8125 Z M 1.21875 -0.8125 "/>
</g>
<g id="glyph-1-3">
<path d="M 1.890625 -0.8125 C 3.4375 -2.40625 4.296875 -3.28125 4.453125 -3.46875 C 5.046875 -4.1875 5.21875 -4.65625 5.21875 -5.234375 C 5.21875 -5.859375 5 -6.359375 4.546875 -6.71875 C 4.109375 -7.09375 3.515625 -7.28125 2.78125 -7.28125 C 2.234375 -7.28125 1.546875 -7.125 0.765625 -6.8125 L 0.765625 -5.828125 C 1.546875 -6.265625 2.203125 -6.46875 2.8125 -6.46875 C 3.671875 -6.46875 4.25 -5.9375 4.25 -5.1875 C 4.25 -4.703125 4.046875 -4.28125 3.421875 -3.578125 C 3.25 -3.390625 2.859375 -2.984375 2.21875 -2.34375 C 1.578125 -1.703125 1.078125 -1.203125 0.71875 -0.8125 L 0.71875 0 L 5.265625 0 L 5.265625 -0.8125 Z M 1.890625 -0.8125 "/>
</g>
<g id="glyph-1-4">
<path d="M 1.0625 -7.15625 L 1.0625 -3.5625 C 1.59375 -3.796875 2.109375 -3.921875 2.625 -3.921875 C 3.734375 -3.921875 4.421875 -3.28125 4.421875 -2.296875 C 4.421875 -1.3125 3.734375 -0.671875 2.625 -0.671875 C 1.9375 -0.671875 1.328125 -0.828125 0.75 -1.140625 L 0.75 -0.171875 C 1.421875 0.046875 2.046875 0.140625 2.640625 0.140625 C 4.375 0.140625 5.390625 -0.75 5.390625 -2.296875 C 5.390625 -3.046875 5.15625 -3.625 4.6875 -4.078125 C 4.21875 -4.515625 3.578125 -4.734375 2.78125 -4.734375 C 2.515625 -4.734375 2.234375 -4.6875 1.9375 -4.578125 L 1.9375 -6.34375 L 4.859375 -6.34375 L 4.859375 -7.15625 Z M 1.0625 -7.15625 "/>
</g>
<g id="glyph-1-5">
<path d="M 0.796875 -7.15625 L 0.796875 -6.34375 L 4.234375 -6.34375 L 1.796875 0 L 2.8125 0 L 5.40625 -6.734375 L 5.40625 -7.15625 Z M 0.796875 -7.15625 "/>
</g>
<g id="glyph-1-6">
<path d="M 3.125 -6.515625 C 4.125 -6.515625 4.625 -5.53125 4.625 -3.578125 C 4.625 -1.609375 4.125 -0.625 3.125 -0.625 C 2.125 -0.625 1.625 -1.609375 1.625 -3.578125 C 1.625 -5.53125 2.125 -6.515625 3.125 -6.515625 Z M 3.125 -7.28125 C 1.515625 -7.28125 0.640625 -5.96875 0.640625 -3.578125 C 0.640625 -1.171875 1.515625 0.140625 3.125 0.140625 C 4.71875 0.140625 5.59375 -1.171875 5.59375 -3.578125 C 5.59375 -5.96875 4.71875 -7.28125 3.125 -7.28125 Z M 3.125 -7.28125 "/>
</g>
<g id="glyph-1-7">
<path d="M 3.125 -3.390625 C 4.046875 -3.390625 4.609375 -2.875 4.609375 -2.015625 C 4.609375 -1.15625 4.03125 -0.625 3.125 -0.625 C 2.203125 -0.625 1.640625 -1.140625 1.640625 -2.015625 C 1.640625 -2.875 2.203125 -3.390625 3.125 -3.390625 Z M 2.15625 -3.8125 C 1.21875 -3.59375 0.671875 -2.921875 0.671875 -2.015625 C 0.671875 -0.625 1.546875 0.140625 3.125 0.140625 C 4.6875 0.140625 5.578125 -0.625 5.578125 -2.015625 C 5.578125 -2.921875 5.03125 -3.59375 4.09375 -3.8125 C 4.921875 -4.015625 5.40625 -4.609375 5.40625 -5.421875 C 5.40625 -6.578125 4.546875 -7.28125 3.125 -7.28125 C 1.703125 -7.28125 0.828125 -6.578125 0.828125 -5.421875 C 0.828125 -4.609375 1.328125 -4.015625 2.15625 -3.8125 Z M 1.796875 -5.34375 C 1.796875 -6.078125 2.28125 -6.515625 3.125 -6.515625 C 3.9375 -6.515625 4.4375 -6.078125 4.4375 -5.34375 C 4.4375 -4.59375 3.9375 -4.15625 3.125 -4.15625 C 2.28125 -4.15625 1.796875 -4.59375 1.796875 -5.34375 Z M 1.796875 -5.34375 "/>
</g>
<g id="glyph-1-8">
<path d="M 0.96875 -7.15625 L 0.96875 0 L 5.421875 0 L 5.421875 -0.8125 L 1.9375 -0.8125 L 1.9375 -7.15625 Z M 0.96875 -7.15625 "/>
</g>
<g id="glyph-1-9">
<path d="M 1.046875 -4.453125 L 1.046875 -3.65625 L 7.1875 -3.65625 L 7.1875 -4.453125 Z M 1.046875 -2.5 L 1.046875 -1.6875 L 7.1875 -1.6875 L 7.1875 -2.5 Z M 1.046875 -2.5 "/>
</g>
<g id="glyph-2-0">
<path d="M 0.265625 0.953125 L 2.953125 0.953125 L 2.953125 -3.796875 L 0.265625 -3.796875 Z M 0.5625 0.65625 L 0.5625 -3.484375 L 2.65625 -3.484375 L 2.65625 0.65625 Z M 0.5625 0.65625 "/>
</g>
<g id="glyph-2-1">
<path d="M 0.5 -2.9375 L 0.5 0.046875 C 0.5 0.3125 0.46875 0.5 0.40625 0.578125 C 0.34375 0.671875 0.21875 0.703125 0.03125 0.703125 L -0.09375 0.703125 L -0.09375 1.125 L 0.09375 1.125 C 0.71875 1.125 0.984375 0.796875 0.984375 0.046875 L 0.984375 -2.9375 Z M 0.5 -4.078125 L 0.5 -3.46875 L 0.984375 -3.46875 L 0.984375 -4.078125 Z M 0.5 -4.078125 "/>
</g>
<g id="glyph-2-2">
<path d="M 0.5625 -2.4375 L 0.5625 -2 L 3.9375 -2 L 3.9375 -2.4375 Z M 0.5625 -1.375 L 0.5625 -0.921875 L 3.9375 -0.921875 L 3.9375 -1.375 Z M 0.5625 -1.375 "/>
</g>
<g id="glyph-2-3">
<path d="M 2.1875 -2.109375 C 2.640625 -2.21875 2.890625 -2.546875 2.890625 -2.96875 C 2.890625 -3.59375 2.390625 -3.984375 1.59375 -3.984375 C 1.28125 -3.984375 0.9375 -3.9375 0.53125 -3.828125 L 0.53125 -3.34375 C 0.9375 -3.484375 1.25 -3.546875 1.546875 -3.546875 C 2.078125 -3.546875 2.375 -3.328125 2.375 -2.921875 C 2.375 -2.53125 2.078125 -2.3125 1.5625 -2.3125 L 1.078125 -2.3125 L 1.078125 -1.875 L 1.546875 -1.875 C 2.125 -1.875 2.46875 -1.59375 2.46875 -1.140625 C 2.46875 -0.640625 2.109375 -0.375 1.4375 -0.375 C 1.0625 -0.375 0.703125 -0.453125 0.40625 -0.625 L 0.40625 -0.125 C 0.78125 0.015625 1.125 0.078125 1.453125 0.078125 C 2.4375 0.078125 2.984375 -0.359375 2.984375 -1.140625 C 2.984375 -1.640625 2.6875 -2 2.1875 -2.109375 Z M 2.1875 -2.109375 "/>
</g>
</g>
<clipPath id="clip-0">
<path clip-rule="nonzero" d="M 161 33 L 163 33 L 163 84.507812 L 161 84.507812 Z M 161 33 "/>
</clipPath>
</defs>
<g fill="rgb(0%, 69.999695%, 0%)" fill-opacity="1">
<use xlink:href="#glyph-0-1" x="3.272" y="8.759"/>
<use xlink:href="#glyph-0-2" x="8.637441" y="8.759"/>
<use xlink:href="#glyph-0-3" x="13.027348" y="8.759"/>
<use xlink:href="#glyph-0-4" x="20.013899" y="8.759"/>
<use xlink:href="#glyph-0-5" x="24.568785" y="8.759"/>
<use xlink:href="#glyph-0-6" x="27.516909" y="8.759"/>
</g>
<g fill="rgb(0%, 69.999695%, 0%)" fill-opacity="1">
<use xlink:href="#glyph-0-7" x="34.08025" y="8.759"/>
<use xlink:href="#glyph-0-6" x="38.635136" y="8.759"/>
</g>
<g fill="rgb(0%, 69.999695%, 0%)" fill-opacity="1">
<use xlink:href="#glyph-0-8" x="45.198477" y="8.759"/>
<use xlink:href="#glyph-0-2" x="49.143655" y="8.759"/>
<use xlink:href="#glyph-0-3" x="53.533561" y="8.759"/>
<use xlink:href="#glyph-0-9" x="60.520112" y="8.759"/>
<use xlink:href="#glyph-0-10" x="65.074999" y="8.759"/>
<use xlink:href="#glyph-0-5" x="69.472078" y="8.759"/>
<use xlink:href="#glyph-0-10" x="72.420202" y="8.759"/>
<use xlink:href="#glyph-0-11" x="76.817282" y="8.759"/>
<use xlink:href="#glyph-0-12" x="78.81139" y="8.759"/>
<use xlink:href="#glyph-0-2" x="82.548549" y="8.759"/>
<use xlink:href="#glyph-0-13" x="86.938455" y="8.759"/>
<use xlink:href="#glyph-0-12" x="91.486169" y="8.759"/>
</g>
<g fill="rgb(0%, 69.999695%, 0%)" fill-opacity="1">
<use xlink:href="#glyph-0-14" x="97.375243" y="8.759"/>
</g>
<g fill="rgb(0%, 69.999695%, 0%)" fill-opacity="1">
<use xlink:href="#glyph-0-15" x="106.736" y="9.274"/>
</g>
<g fill="rgb(0%, 69.999695%, 0%)" fill-opacity="1">
<use xlink:href="#glyph-0-16" x="127.852" y="9.374"/>
</g>
<g fill="rgb(0%, 69.999695%, 0%)" fill-opacity="1">
<use xlink:href="#glyph-0-17" x="148.969" y="9.374"/>
</g>
<path fill="none" stroke-width="0.3985" stroke-linecap="butt" stroke-linejoin="miter" stroke="rgb(0%, 0%, 0%)" stroke-opacity="1" stroke-miterlimit="10" d="M -63.15175 -10.630281 L 63.149031 -10.630281 L 63.149031 10.631437 L -63.15175 10.631437 Z M -42.233781 10.631437 L -42.233781 -10.630281 M -21.116594 10.631437 L -21.116594 -10.630281 M 0.00059375 10.631437 L 0.00059375 -10.630281 M 21.117781 10.631437 L 21.117781 -10.630281 M 42.234969 10.631437 L 42.234969 -10.630281 " transform="matrix(1, 0, 0, -1, 161.808, 59.108)"/>
<g fill="rgb(0%, 0%, 0%)" fill-opacity="1">
<use xlink:href="#glyph-1-1" x="104.123" y="62.652"/>
<use xlink:href="#glyph-1-2" x="107.667334" y="62.652"/>
</g>
<g fill="rgb(0%, 0%, 0%)" fill-opacity="1">
<use xlink:href="#glyph-1-3" x="127.011" y="62.652"/>
</g>
<g fill="rgb(0%, 0%, 0%)" fill-opacity="1">
<use xlink:href="#glyph-1-4" x="148.128" y="62.584"/>
</g>
<g fill="rgb(0%, 0%, 0%)" fill-opacity="1">
<use xlink:href="#glyph-1-5" x="169.244" y="62.652"/>
</g>
<g fill="rgb(0%, 0%, 0%)" fill-opacity="1">
<use xlink:href="#glyph-1-6" x="190.36" y="62.584"/>
</g>
<g fill="rgb(0%, 0%, 0%)" fill-opacity="1">
<use xlink:href="#glyph-1-3" x="208.355" y="62.584"/>
<use xlink:href="#glyph-1-7" x="214.599312" y="62.584"/>
</g>
<g fill="rgb(0%, 0%, 0%)" fill-opacity="1">
<use xlink:href="#glyph-1-8" x="81.291" y="62.652"/>
<use xlink:href="#glyph-1-9" x="86.759682" y="62.652"/>
</g>
<path fill-rule="nonzero" fill="rgb(50%, 50%, 50%)" fill-opacity="0.5" d="M 162.007812 69.738281 L 183.265625 69.738281 L 183.265625 48.476562 L 162.007812 48.476562 Z M 162.007812 69.738281 "/>
<path fill="none" stroke-width="0.3985" stroke-linecap="butt" stroke-linejoin="miter" stroke="rgb(0%, 0%, 0%)" stroke-opacity="1" stroke-miterlimit="10" d="M 10.559188 14.416594 L 10.559188 25.002531 " transform="matrix(1, 0, 0, -1, 161.808, 59.108)"/>
<path fill-rule="nonzero" fill="rgb(0%, 0%, 0%)" fill-opacity="1" d="M 172.367188 48.277344 C 172.566406 47.214844 173.164062 45.488281 173.859375 44.292969 L 170.871094 44.292969 C 171.570312 45.488281 172.167969 47.214844 172.367188 48.277344 "/>
<g fill="rgb(0%, 0%, 0%)" fill-opacity="1">
<use xlink:href="#glyph-2-1" x="167.654" y="29.555"/>
<use xlink:href="#glyph-2-2" x="169.149582" y="29.555"/>
<use xlink:href="#glyph-2-3" x="173.657846" y="29.555"/>
</g>
<g clip-path="url(#clip-0)">
<path fill="none" stroke-width="0.79701" stroke-linecap="butt" stroke-linejoin="miter" stroke="rgb(0%, 0%, 0%)" stroke-opacity="1" stroke-dasharray="2.98883 2.98883" stroke-miterlimit="10" d="M 0.00059375 10.830656 L 0.00059375 25.002531 M 0.00059375 -10.8295 L 0.00059375 -25.001375 " transform="matrix(1, 0, 0, -1, 161.808, 59.108)"/>
</g>
</svg>
