<?xml version="1.0" encoding="UTF-8"?>
<svg xmlns="http://www.w3.org/2000/svg" xmlns:xlink="http://www.w3.org/1999/xlink" width="181.161pt" height="198.072pt" viewBox="0 0 181.161 198.072" version="1.1">
<defs>
<g>
<symbol overflow="visible" id="glyph0-0">
<path style="stroke:none;" d="M 0.484375 1.734375 L 5.390625 1.734375 L 5.390625 -6.921875 L 0.484375 -6.921875 Z M 1.046875 1.1875 L 1.046875 -6.375 L 4.84375 -6.375 L 4.84375 1.1875 Z M 1.046875 1.1875 "/>
</symbol>
<symbol overflow="visible" id="glyph0-1">
<path style="stroke:none;" d="M 1.890625 -0.8125 C 3.4375 -2.40625 4.296875 -3.28125 4.453125 -3.46875 C 5.046875 -4.1875 5.21875 -4.65625 5.21875 -5.234375 C 5.21875 -5.859375 5 -6.359375 4.546875 -6.71875 C 4.109375 -7.09375 3.515625 -7.28125 2.78125 -7.28125 C 2.234375 -7.28125 1.546875 -7.125 0.765625 -6.8125 L 0.765625 -5.828125 C 1.546875 -6.265625 2.203125 -6.46875 2.8125 -6.46875 C 3.671875 -6.46875 4.25 -5.9375 4.25 -5.1875 C 4.25 -4.703125 4.046875 -4.28125 3.421875 -3.578125 C 3.25 -3.390625 2.859375 -2.984375 2.21875 -2.34375 C 1.578125 -1.703125 1.078125 -1.203125 0.71875 -0.8125 L 0.71875 0 L 5.265625 0 L 5.265625 -0.8125 Z M 1.890625 -0.8125 "/>
</symbol>
<symbol overflow="visible" id="glyph0-2">
<path style="stroke:none;" d="M 1.0625 -7.15625 L 1.0625 -3.5625 C 1.59375 -3.796875 2.109375 -3.921875 2.625 -3.921875 C 3.734375 -3.921875 4.421875 -3.28125 4.421875 -2.296875 C 4.421875 -1.3125 3.734375 -0.671875 2.625 -0.671875 C 1.9375 -0.671875 1.328125 -0.828125 0.75 -1.140625 L 0.75 -0.171875 C 1.421875 0.046875 2.046875 0.140625 2.640625 0.140625 C 4.375 0.140625 5.390625 -0.75 5.390625 -2.296875 C 5.390625 -3.046875 5.15625 -3.625 4.6875 -4.078125 C 4.21875 -4.515625 3.578125 -4.734375 2.78125 -4.734375 C 2.515625 -4.734375 2.234375 -4.6875 1.9375 -4.578125 L 1.9375 -6.34375 L 4.859375 -6.34375 L 4.859375 -7.15625 Z M 1.0625 -7.15625 "/>
</symbol>
<symbol overflow="visible" id="glyph0-3">
<path style="stroke:none;" d="M 0.484375 -3.078125 L 0.484375 -2.296875 L 3.0625 -2.296875 L 3.0625 -3.078125 Z M 0.484375 -3.078125 "/>
</symbol>
<symbol overflow="visible" id="glyph0-4">
<path style="stroke:none;" d="M 1.21875 -0.8125 L 1.21875 0 L 5.34375 0 L 5.34375 -0.8125 L 3.765625 -0.8125 L 3.765625 -7.15625 L 2.78125 -7.15625 L 1.078125 -6.8125 L 1.078125 -5.921875 L 2.796875 -6.265625 L 2.796875 -0.8125 Z M 1.21875 -0.8125 "/>
</symbol>
<symbol overflow="visible" id="glyph0-5">
<path style="stroke:none;" d="M 0.796875 -7.15625 L 0.796875 -6.34375 L 4.234375 -6.34375 L 1.796875 0 L 2.8125 0 L 5.40625 -6.734375 L 5.40625 -7.15625 Z M 0.796875 -7.15625 "/>
</symbol>
<symbol overflow="visible" id="glyph0-6">
<path style="stroke:none;" d="M 3.125 -6.515625 C 4.125 -6.515625 4.625 -5.53125 4.625 -3.578125 C 4.625 -1.609375 4.125 -0.625 3.125 -0.625 C 2.125 -0.625 1.625 -1.609375 1.625 -3.578125 C 1.625 -5.53125 2.125 -6.515625 3.125 -6.515625 Z M 3.125 -7.28125 C 1.515625 -7.28125 0.640625 -5.96875 0.640625 -3.578125 C 0.640625 -1.171875 1.515625 0.140625 3.125 0.140625 C 4.71875 0.140625 5.59375 -1.171875 5.59375 -3.578125 C 5.59375 -5.96875 4.71875 -7.28125 3.125 -7.28125 Z M 3.125 -7.28125 "/>
</symbol>
<symbol overflow="visible" id="glyph0-7">
<path style="stroke:none;" d="M 3.125 -3.390625 C 4.046875 -3.390625 4.609375 -2.875 4.609375 -2.015625 C 4.609375 -1.15625 4.03125 -0.625 3.125 -0.625 C 2.203125 -0.625 1.640625 -1.140625 1.640625 -2.015625 C 1.640625 -2.875 2.203125 -3.390625 3.125 -3.390625 Z M 2.15625 -3.8125 C 1.21875 -3.59375 0.671875 -2.921875 0.671875 -2.015625 C 0.671875 -0.625 1.546875 0.140625 3.125 0.140625 C 4.6875 0.140625 5.578125 -0.625 5.578125 -2.015625 C 5.578125 -2.921875 5.03125 -3.59375 4.09375 -3.8125 C 4.921875 -4.015625 5.40625 -4.609375 5.40625 -5.421875 C 5.40625 -6.578125 4.546875 -7.28125 3.125 -7.28125 C 1.703125 -7.28125 0.828125 -6.578125 0.828125 -5.421875 C 0.828125 -4.609375 1.328125 -4.015625 2.15625 -3.8125 Z M 1.796875 -5.34375 C 1.796875 -6.078125 2.28125 -6.515625 3.125 -6.515625 C 3.9375 -6.515625 4.4375 -6.078125 4.4375 -5.34375 C 4.4375 -4.59375 3.9375 -4.15625 3.125 -4.15625 C 2.28125 -4.15625 1.796875 -4.59375 1.796875 -5.34375 Z M 1.796875 -5.34375 "/>
</symbol>
<symbol overflow="visible" id="glyph0-8">
<path style="stroke:none;" d="M 0.96875 -7.15625 L 0.96875 0 L 5.421875 0 L 5.421875 -0.8125 L 1.9375 -0.8125 L 1.9375 -7.15625 Z M 0.96875 -7.15625 "/>
</symbol>
<symbol overflow="visible" id="glyph0-9">
<path style="stroke:none;" d="M 1.046875 -4.453125 L 1.046875 -3.65625 L 7.1875 -3.65625 L 7.1875 -4.453125 Z M 1.046875 -2.5 L 1.046875 -1.6875 L 7.1875 -1.6875 L 7.1875 -2.5 Z M 1.046875 -2.5 "/>
</symbol>
</g>
</defs>
<g id="surface1">
<path style="fill:none;stroke-width:0.3985;stroke-linecap:butt;stroke-linejoin:miter;stroke:rgb(0%,0%,0%);stroke-opacity:1;stroke-miterlimit:10;" d="M 0.200938 0.19875 L 126.501719 0.19875 L 126.501719 21.460469 L 0.200938 21.460469 Z M 21.115 21.460469 L 21.115 0.19875 M 42.232188 21.460469 L 42.232188 0.19875 M 63.349375 21.460469 L 63.349375 0.19875 M 84.466563 21.460469 L 84.466563 0.19875 M 105.58375 21.460469 L 105.58375 0.19875 " transform="matrix(1,0,0,-1,21.26,36.23)"/>
<g style="fill:rgb(0%,0%,0%);fill-opacity:1;">
  <use xlink:href="#glyph0-1" x="28.696" y="28.945"/>
</g>
<g style="fill:rgb(0%,0%,0%);fill-opacity:1;">
  <use xlink:href="#glyph0-2" x="49.812" y="28.876"/>
</g>
<g style="fill:rgb(0%,0%,0%);fill-opacity:1;">
  <use xlink:href="#glyph0-3" x="69.157" y="28.945"/>
  <use xlink:href="#glyph0-4" x="72.701334" y="28.945"/>
</g>
<g style="fill:rgb(0%,0%,0%);fill-opacity:1;">
  <use xlink:href="#glyph0-5" x="92.045" y="28.945"/>
</g>
<g style="fill:rgb(0%,0%,0%);fill-opacity:1;">
  <use xlink:href="#glyph0-6" x="113.162" y="28.876"/>
</g>
<g style="fill:rgb(0%,0%,0%);fill-opacity:1;">
  <use xlink:href="#glyph0-1" x="131.156" y="28.876"/>
  <use xlink:href="#glyph0-7" x="137.400312" y="28.876"/>
</g>
<g style="fill:rgb(0%,0%,0%);fill-opacity:1;">
  <use xlink:href="#glyph0-8" x="4.092" y="28.945"/>
  <use xlink:href="#glyph0-9" x="9.560682" y="28.945"/>
</g>
</g>
</svg>
